<?xml version="1.0" encoding="UTF-8" standalone="no"?>
<svg
   xmlns:ooo="http://xml.openoffice.org/svg/export"
   xmlns:dc="http://purl.org/dc/elements/1.1/"
   xmlns:cc="http://creativecommons.org/ns#"
   xmlns:rdf="http://www.w3.org/1999/02/22-rdf-syntax-ns#"
   xmlns:svg="http://www.w3.org/2000/svg"
   xmlns="http://www.w3.org/2000/svg"
   xmlns:sodipodi="http://sodipodi.sourceforge.net/DTD/sodipodi-0.dtd"
   xmlns:inkscape="http://www.inkscape.org/namespaces/inkscape"
   version="1.2"
   width="160.73mm"
   height="100.73mm"
   viewBox="0 0 16073 10073.001"
   preserveAspectRatio="xMidYMid"
   fill-rule="evenodd"
   stroke-width="28.222"
   stroke-linejoin="round"
   xml:space="preserve"
   id="svg446"
   sodipodi:docname="kinship_chains.svg"
   inkscape:version="1.0.2 (e86c870879, 2021-01-15)"
   inkscape:export-filename="/home/swire/Documents/Education/ENS/OS/proj/systeme-osef/slides/img/kinship_chains.png"
   inkscape:export-xdpi="158.10385"
   inkscape:export-ydpi="158.10385"><metadata
   id="metadata450"><rdf:RDF><cc:Work
       rdf:about=""><dc:format>image/svg+xml</dc:format><dc:type
         rdf:resource="http://purl.org/dc/dcmitype/StillImage" /><dc:title /></cc:Work></rdf:RDF></metadata><sodipodi:namedview
   pagecolor="#ffffff"
   bordercolor="#666666"
   borderopacity="1"
   objecttolerance="10"
   gridtolerance="10"
   guidetolerance="10"
   inkscape:pageopacity="0"
   inkscape:pageshadow="2"
   inkscape:window-width="1366"
   inkscape:window-height="747"
   id="namedview448"
   showgrid="false"
   fit-margin-top="0"
   fit-margin-left="0"
   fit-margin-right="0"
   fit-margin-bottom="0"
   inkscape:zoom="0.78288795"
   inkscape:cx="294.49816"
   inkscape:cy="199.39507"
   inkscape:window-x="0"
   inkscape:window-y="0"
   inkscape:window-maximized="1"
   inkscape:current-layer="svg446"
   inkscape:document-rotation="0" />
 <defs
   class="ClipPathGroup"
   id="defs8">
  <clipPath
   id="presentation_clip_path"
   clipPathUnits="userSpaceOnUse">
   <rect
   x="0"
   y="0"
   width="21590"
   height="27940"
   id="rect2" />
  </clipPath>
  <clipPath
   id="presentation_clip_path_shrink"
   clipPathUnits="userSpaceOnUse">
   <rect
   x="21"
   y="27"
   width="21547"
   height="27885"
   id="rect5" />
  </clipPath>
 </defs>
 <defs
   id="defs33">
  <font
   id="EmbeddedFont_1"
   horiz-adv-x="2048"
   horiz-origin-x="0"
   horiz-origin-y="0"
   vert-origin-x="512"
   vert-origin-y="768"
   vert-adv-y="1024">
   <font-face
   font-family="Liberation Sans embedded"
   units-per-em="2048"
   font-weight="bold"
   font-style="normal"
   ascent="1852"
   descent="423"
   id="font-face10" />
   <missing-glyph
   horiz-adv-x="2048"
   d="M 0,0 L 2047,0 2047,2047 0,2047 0,0 Z"
   id="missing-glyph12" />
   <glyph
   unicode="f"
   horiz-adv-x="663"
   d="M 473,892 L 473,0 193,0 193,892 35,892 35,1082 193,1082 193,1195 C 193,1293 219,1366 271,1413 323,1460 402,1484 508,1484 561,1484 620,1479 686,1468 L 686,1287 C 659,1293 631,1296 604,1296 556,1296 522,1287 503,1268 483,1249 473,1215 473,1167 L 473,1082 686,1082 686,892 473,892 Z"
   id="glyph14" />
   <glyph
   unicode="e"
   horiz-adv-x="1007"
   d="M 586,-20 C 423,-20 298,28 211,125 124,221 80,361 80,546 80,725 124,862 213,958 302,1054 427,1102 590,1102 745,1102 864,1051 946,948 1028,845 1069,694 1069,495 L 1069,487 375,487 C 375,382 395,302 434,249 473,195 528,168 600,168 699,168 762,211 788,297 L 1053,274 C 976,78 821,-20 586,-20 Z M 586,925 C 520,925 469,902 434,856 398,810 379,746 377,663 L 797,663 C 792,750 771,816 734,860 697,903 648,925 586,925 Z"
   id="glyph16" />
   <glyph
   unicode="d"
   horiz-adv-x="1033"
   d="M 844,0 C 841,10 838,35 835,76 831,116 829,149 829,176 L 825,176 C 764,45 649,-20 479,-20 353,-20 256,29 187,128 118,226 84,363 84,540 84,719 120,858 193,956 265,1053 367,1102 500,1102 577,1102 643,1086 699,1054 754,1022 797,974 827,911 L 829,911 827,1089 827,1484 1108,1484 1108,236 C 1108,169 1111,91 1116,0 L 844,0 Z M 831,547 C 831,664 812,754 773,817 734,880 676,911 600,911 525,911 469,881 432,820 395,759 377,665 377,540 377,295 451,172 598,172 672,172 729,205 770,270 811,335 831,427 831,547 Z"
   id="glyph18" />
   <glyph
   unicode="c"
   horiz-adv-x="1007"
   d="M 594,-20 C 430,-20 303,29 214,127 125,224 80,360 80,535 80,714 125,853 215,953 305,1052 433,1102 598,1102 725,1102 831,1070 914,1006 997,942 1050,854 1071,741 L 788,727 C 780,782 760,827 728,860 696,893 651,909 592,909 447,909 375,788 375,546 375,297 449,172 596,172 649,172 694,189 730,223 766,256 788,306 797,373 L 1079,360 C 1069,286 1043,220 1000,162 957,104 900,59 830,28 760,-4 681,-20 594,-20 Z"
   id="glyph20" />
   <glyph
   unicode="b"
   horiz-adv-x="1033"
   d="M 1167,545 C 1167,366 1131,228 1060,129 988,30 885,-20 752,-20 675,-20 609,-3 553,30 497,63 454,111 424,174 L 422,174 C 422,151 421,119 418,78 415,37 411,11 408,0 L 135,0 C 140,62 143,144 143,247 L 143,1484 424,1484 424,1070 420,894 424,894 C 487,1033 603,1102 770,1102 898,1102 996,1054 1065,957 1133,860 1167,722 1167,545 Z M 874,545 C 874,668 856,759 820,818 784,877 728,907 653,907 577,907 519,875 480,812 440,748 420,656 420,536 420,421 440,332 479,268 518,204 575,172 651,172 800,172 874,296 874,545 Z"
   id="glyph22" />
   <glyph
   unicode="a"
   horiz-adv-x="1112"
   d="M 393,-20 C 288,-20 207,9 148,66 89,123 60,203 60,306 60,418 97,503 170,562 243,621 348,651 487,652 L 720,656 720,711 C 720,782 708,834 683,869 658,903 618,920 562,920 510,920 472,908 448,885 423,861 408,822 402,767 L 109,781 C 127,886 175,966 254,1021 332,1075 439,1102 574,1102 711,1102 816,1068 890,1001 964,934 1001,838 1001,714 L 1001,320 C 1001,259 1008,218 1022,195 1035,172 1058,160 1090,160 1111,160 1132,162 1152,166 L 1152,14 C 1135,10 1120,6 1107,3 1094,0 1080,-3 1067,-5 1054,-7 1040,-9 1025,-10 1010,-11 992,-12 972,-12 901,-12 849,5 816,40 782,75 762,126 755,193 L 749,193 C 670,51 552,-20 393,-20 Z M 720,501 L 576,499 C 511,496 464,489 437,478 410,466 389,448 375,424 360,400 353,368 353,328 353,277 365,239 389,214 412,189 444,176 483,176 527,176 567,188 604,212 640,236 668,269 689,312 710,354 720,399 720,446 L 720,501 Z"
   id="glyph24" />
   <glyph
   unicode="2"
   horiz-adv-x="1006"
   d="M 71,0 L 71,195 C 108,276 160,354 228,431 295,508 380,588 483,671 582,751 651,817 691,869 730,921 750,972 750,1022 750,1145 688,1206 565,1206 505,1206 459,1190 428,1158 396,1125 375,1077 366,1012 L 83,1028 C 99,1159 148,1258 230,1327 311,1396 422,1430 563,1430 715,1430 832,1395 913,1326 994,1257 1035,1159 1035,1034 1035,968 1022,908 996,855 970,802 937,753 896,708 855,663 810,620 761,581 711,542 663,503 616,466 569,429 527,391 489,353 450,315 422,274 403,231 L 1057,231 1057,0 71,0 Z"
   id="glyph26" />
   <glyph
   unicode="1"
   horiz-adv-x="980"
   d="M 129,0 L 129,209 478,209 478,1170 140,959 140,1180 493,1409 759,1409 759,209 1082,209 1082,0 129,0 Z"
   id="glyph28" />
   <glyph
   unicode="+"
   horiz-adv-x="1033"
   d="M 711,569 L 711,161 485,161 485,569 86,569 86,793 485,793 485,1201 711,1201 711,793 1113,793 1113,569 711,569 Z"
   id="glyph30" />
  </font>
 </defs>
 <defs
   class="TextShapeIndex"
   id="defs37">
  <g
   ooo:slide="id1"
   ooo:id-list="id3 id4 id5 id6 id7 id8 id9 id10 id11 id12 id13 id14 id15 id16 id17 id18 id19 id20 id21 id22 id23 id24 id25 id26 id27 id28"
   id="g35" />
 </defs>
 <defs
   class="EmbeddedBulletChars"
   id="defs69">
  <g
   id="bullet-char-template-57356"
   transform="matrix(4.8828125e-4,0,0,-4.8828125e-4,0,0)">
   <path
   d="M 580,1141 1163,571 580,0 -4,571 Z"
   id="path39" />
  </g>
  <g
   id="bullet-char-template-57354"
   transform="matrix(4.8828125e-4,0,0,-4.8828125e-4,0,0)">
   <path
   d="M 8,1128 H 1137 V 0 H 8 Z"
   id="path42" />
  </g>
  <g
   id="bullet-char-template-10146"
   transform="matrix(4.8828125e-4,0,0,-4.8828125e-4,0,0)">
   <path
   d="M 174,0 602,739 174,1481 1456,739 Z M 1358,739 309,1346 659,739 Z"
   id="path45" />
  </g>
  <g
   id="bullet-char-template-10132"
   transform="matrix(4.8828125e-4,0,0,-4.8828125e-4,0,0)">
   <path
   d="M 2015,739 1276,0 H 717 l 543,543 H 174 v 393 h 1086 l -543,545 h 557 z"
   id="path48" />
  </g>
  <g
   id="bullet-char-template-10007"
   transform="matrix(4.8828125e-4,0,0,-4.8828125e-4,0,0)">
   <path
   d="m 0,-2 c -7,16 -16,29 -25,39 l 381,530 c -94,256 -141,385 -141,387 0,25 13,38 40,38 9,0 21,-2 34,-5 21,4 42,12 65,25 l 27,-13 111,-251 280,301 64,-25 24,25 c 21,-10 41,-24 62,-43 C 886,937 835,863 770,784 769,783 710,716 594,584 L 774,223 c 0,-27 -21,-55 -63,-84 l 16,-20 C 717,90 699,76 672,76 641,76 570,178 457,381 L 164,-76 c -22,-34 -53,-51 -92,-51 -42,0 -63,17 -64,51 -7,9 -10,24 -10,44 0,9 1,19 2,30 z"
   id="path51" />
  </g>
  <g
   id="bullet-char-template-10004"
   transform="matrix(4.8828125e-4,0,0,-4.8828125e-4,0,0)">
   <path
   d="M 285,-33 C 182,-33 111,30 74,156 52,228 41,333 41,471 c 0,78 14,145 41,201 34,71 87,106 158,106 53,0 88,-31 106,-94 l 23,-176 c 8,-64 28,-97 59,-98 l 735,706 c 11,11 33,17 66,17 42,0 63,-15 63,-46 V 965 c 0,-36 -10,-64 -30,-84 L 442,47 C 390,-6 338,-33 285,-33 Z"
   id="path54" />
  </g>
  <g
   id="bullet-char-template-9679"
   transform="matrix(4.8828125e-4,0,0,-4.8828125e-4,0,0)">
   <path
   d="M 813,0 C 632,0 489,54 383,161 276,268 223,411 223,592 c 0,181 53,324 160,431 106,107 249,161 430,161 179,0 323,-54 432,-161 108,-107 162,-251 162,-431 0,-180 -54,-324 -162,-431 C 1136,54 992,0 813,0 Z"
   id="path57" />
  </g>
  <g
   id="bullet-char-template-8226"
   transform="matrix(4.8828125e-4,0,0,-4.8828125e-4,0,0)">
   <path
   d="m 346,457 c -73,0 -137,26 -191,78 -54,51 -81,114 -81,188 0,73 27,136 81,188 54,52 118,78 191,78 73,0 134,-26 185,-79 51,-51 77,-114 77,-187 0,-75 -25,-137 -76,-188 -50,-52 -112,-78 -186,-78 z"
   id="path60" />
  </g>
  <g
   id="bullet-char-template-8211"
   transform="matrix(4.8828125e-4,0,0,-4.8828125e-4,0,0)">
   <path
   d="M -4,459 H 1135 V 606 H -4 Z"
   id="path63" />
  </g>
  <g
   id="bullet-char-template-61548"
   transform="matrix(4.8828125e-4,0,0,-4.8828125e-4,0,0)">
   <path
   d="m 173,740 c 0,163 58,303 173,419 116,115 255,173 419,173 163,0 302,-58 418,-173 116,-116 174,-256 174,-419 0,-163 -58,-303 -174,-418 C 1067,206 928,148 765,148 601,148 462,206 346,322 231,437 173,577 173,740 Z"
   id="path66" />
  </g>
 </defs>
 <g
   id="g74"
   transform="translate(-1964,-2964)">
  <g
   id="id2"
   class="Master_Slide">
   <g
   id="bg-id2"
   class="Background" />
   <g
   id="bo-id2"
   class="BackgroundObjects" />
  </g>
 </g>
 <g
   class="SlideGroup"
   id="g444"
   transform="translate(-1964,-2964)">
  <g
   id="g442">
   <g
   id="container-id1">
    <g
   id="id1"
   class="Slide"
   clip-path="url(#presentation_clip_path)">
     <g
   class="Page"
   id="g438">
      <g
   class="com.sun.star.drawing.CustomShape"
   id="g89">
       <g
   id="id3">
        <rect
   class="BoundingBox"
   stroke="none"
   fill="none"
   x="8964"
   y="3964"
   width="1073"
   height="1073"
   id="rect76" />
        <path
   fill="none"
   stroke="#000000"
   stroke-width="71"
   stroke-linejoin="round"
   d="M 9500,5000 H 9000 V 4000 h 1000 v 1000 z"
   id="path78" />
        <text
   class="TextShape"
   id="text86"><tspan
     class="TextParagraph"
     font-family="'Liberation Sans', sans-serif"
     font-size="423px"
     font-weight="700"
     id="tspan84"><tspan
       class="TextPosition"
       x="9263"
       y="4648"
       id="tspan82"><tspan
         fill="#ff0000"
         stroke="none"
         id="tspan80">2a</tspan></tspan></tspan></text>
       </g>
      </g>
      <g
   class="com.sun.star.drawing.CustomShape"
   id="g110">
       <g
   id="id4">
        <rect
   class="BoundingBox"
   stroke="none"
   fill="none"
   x="10964"
   y="3964"
   width="1073"
   height="1073"
   id="rect91" />
        <path
   fill="none"
   stroke="#000000"
   stroke-width="71"
   stroke-linejoin="round"
   d="m 11500,5000 h -500 V 4000 h 1000 v 1000 z"
   id="path93" />
        <text
   class="TextShape"
   id="text107"><tspan
     class="TextParagraph"
     font-family="'Liberation Sans', sans-serif"
     font-size="423px"
     font-weight="700"
     id="tspan99"><tspan
       class="TextPosition"
       x="11263"
       y="4411"
       id="tspan97"><tspan
         fill="#ffa6a6"
         stroke="none"
         id="tspan95">2a</tspan></tspan></tspan><tspan
     class="TextParagraph"
     font-family="'Liberation Sans', sans-serif"
     font-size="423px"
     font-weight="700"
     id="tspan105"><tspan
       class="TextPosition"
       x="11258"
       y="4885"
       id="tspan103"><tspan
         fill="#ffa6a6"
         stroke="none"
         id="tspan101">+1</tspan></tspan></tspan></text>
       </g>
      </g>
      <g
   class="com.sun.star.drawing.CustomShape"
   id="g125">
       <g
   id="id5">
        <rect
   class="BoundingBox"
   stroke="none"
   fill="none"
   x="9964"
   y="2964"
   width="1073"
   height="1073"
   id="rect112" />
        <path
   fill="none"
   stroke="#000000"
   stroke-width="71"
   stroke-linejoin="round"
   d="m 10500,4000 h -500 V 3000 h 1000 v 1000 z"
   id="path114" />
        <text
   class="TextShape"
   id="text122"><tspan
     class="TextParagraph"
     font-family="'Liberation Sans', sans-serif"
     font-size="635px"
     font-weight="700"
     id="tspan120"><tspan
       class="TextPosition"
       x="10325"
       y="3721"
       id="tspan118"><tspan
         fill="#000000"
         stroke="none"
         id="tspan116">a</tspan></tspan></tspan></text>
       </g>
      </g>
      <g
   class="com.sun.star.drawing.CustomShape"
   id="g140">
       <g
   id="id6">
        <rect
   class="BoundingBox"
   stroke="none"
   fill="none"
   x="2964"
   y="7964"
   width="1073"
   height="1073"
   id="rect127" />
        <path
   fill="none"
   stroke="#000000"
   stroke-width="71"
   stroke-linejoin="round"
   d="M 3500,9000 H 3000 V 8000 h 1000 v 1000 z"
   id="path129" />
        <text
   class="TextShape"
   id="text137"><tspan
     class="TextParagraph"
     font-family="'Liberation Sans', sans-serif"
     font-size="423px"
     font-weight="700"
     id="tspan135"><tspan
       class="TextPosition"
       x="3252"
       y="8648"
       id="tspan133"><tspan
         fill="#2a6099"
         stroke="none"
         id="tspan131">2b</tspan></tspan></tspan></text>
       </g>
      </g>
      <g
   class="com.sun.star.drawing.CustomShape"
   id="g161">
       <g
   id="id7">
        <rect
   class="BoundingBox"
   stroke="none"
   fill="none"
   x="4964"
   y="7964"
   width="1073"
   height="1073"
   id="rect142" />
        <path
   fill="none"
   stroke="#000000"
   stroke-width="71"
   stroke-linejoin="round"
   d="M 5500,9000 H 5000 V 8000 h 1000 v 1000 z"
   id="path144" />
        <text
   class="TextShape"
   id="text158"><tspan
     class="TextParagraph"
     font-family="'Liberation Sans', sans-serif"
     font-size="423px"
     font-weight="700"
     id="tspan150"><tspan
       class="TextPosition"
       x="5252"
       y="8411"
       id="tspan148"><tspan
         fill="#666666"
         stroke="none"
         id="tspan146">2b</tspan></tspan></tspan><tspan
     class="TextParagraph"
     font-family="'Liberation Sans', sans-serif"
     font-size="423px"
     font-weight="700"
     id="tspan156"><tspan
       class="TextPosition"
       x="5258"
       y="8885"
       id="tspan154"><tspan
         fill="#666666"
         stroke="none"
         id="tspan152">+1</tspan></tspan></tspan></text>
       </g>
      </g>
      <g
   class="com.sun.star.drawing.CustomShape"
   id="g176">
       <g
   id="id8">
        <rect
   class="BoundingBox"
   stroke="none"
   fill="none"
   x="3964"
   y="6964"
   width="1073"
   height="1073"
   id="rect163" />
        <path
   fill="none"
   stroke="#000000"
   stroke-width="71"
   stroke-linejoin="round"
   d="M 4500,8000 H 4000 V 7000 h 1000 v 1000 z"
   id="path165" />
        <text
   class="TextShape"
   id="text173"><tspan
     class="TextParagraph"
     font-family="'Liberation Sans', sans-serif"
     font-size="635px"
     font-weight="700"
     id="tspan171"><tspan
       class="TextPosition"
       x="4306"
       y="7721"
       id="tspan169"><tspan
         fill="#000000"
         stroke="none"
         id="tspan167">b</tspan></tspan></tspan></text>
       </g>
      </g>
      <g
   class="com.sun.star.drawing.CustomShape"
   id="g191">
       <g
   id="id9">
        <rect
   class="BoundingBox"
   stroke="none"
   fill="none"
   x="6964"
   y="7964"
   width="1073"
   height="1073"
   id="rect178" />
        <path
   fill="none"
   stroke="#000000"
   stroke-width="71"
   stroke-linejoin="round"
   d="M 7500,9000 H 7000 V 8000 h 1000 v 1000 z"
   id="path180" />
        <text
   class="TextShape"
   id="text188"><tspan
     class="TextParagraph"
     font-family="'Liberation Sans', sans-serif"
     font-size="423px"
     font-weight="700"
     id="tspan186"><tspan
       class="TextPosition"
       x="7263"
       y="8648"
       id="tspan184"><tspan
         fill="#666666"
         stroke="none"
         id="tspan182">2c</tspan></tspan></tspan></text>
       </g>
      </g>
      <g
   class="com.sun.star.drawing.CustomShape"
   id="g212">
       <g
   id="id10">
        <rect
   class="BoundingBox"
   stroke="none"
   fill="none"
   x="8964"
   y="7964"
   width="1073"
   height="1073"
   id="rect193" />
        <path
   fill="none"
   stroke="#000000"
   stroke-width="71"
   stroke-linejoin="round"
   d="M 9500,9000 H 9000 V 8000 h 1000 v 1000 z"
   id="path195" />
        <text
   class="TextShape"
   id="text209"><tspan
     class="TextParagraph"
     font-family="'Liberation Sans', sans-serif"
     font-size="423px"
     font-weight="700"
     id="tspan201"><tspan
       class="TextPosition"
       x="9263"
       y="8411"
       id="tspan199"><tspan
         fill="#666666"
         stroke="none"
         id="tspan197">2c</tspan></tspan></tspan><tspan
     class="TextParagraph"
     font-family="'Liberation Sans', sans-serif"
     font-size="423px"
     font-weight="700"
     id="tspan207"><tspan
       class="TextPosition"
       x="9258"
       y="8885"
       id="tspan205"><tspan
         fill="#666666"
         stroke="none"
         id="tspan203">+1</tspan></tspan></tspan></text>
       </g>
      </g>
      <g
   class="com.sun.star.drawing.CustomShape"
   id="g227">
       <g
   id="id11">
        <rect
   class="BoundingBox"
   stroke="none"
   fill="none"
   x="7964"
   y="6964"
   width="1073"
   height="1073"
   id="rect214" />
        <path
   fill="none"
   stroke="#000000"
   stroke-width="71"
   stroke-linejoin="round"
   d="M 8500,8000 H 8000 V 7000 h 1000 v 1000 z"
   id="path216" />
        <text
   class="TextShape"
   id="text224"><tspan
     class="TextParagraph"
     font-family="'Liberation Sans', sans-serif"
     font-size="635px"
     font-weight="700"
     id="tspan222"><tspan
       class="TextPosition"
       x="8325"
       y="7721"
       id="tspan220"><tspan
         fill="#000000"
         stroke="none"
         id="tspan218">c</tspan></tspan></tspan></text>
       </g>
      </g>
      <g
   class="com.sun.star.drawing.CustomShape"
   id="g242">
       <g
   id="id12">
        <rect
   class="BoundingBox"
   stroke="none"
   fill="none"
   x="10964"
   y="7964"
   width="1073"
   height="1073"
   id="rect229" />
        <path
   fill="none"
   stroke="#000000"
   stroke-width="71"
   stroke-linejoin="round"
   d="m 11500,9000 h -500 V 8000 h 1000 v 1000 z"
   id="path231" />
        <text
   class="TextShape"
   id="text239"><tspan
     class="TextParagraph"
     font-family="'Liberation Sans', sans-serif"
     font-size="423px"
     font-weight="700"
     id="tspan237"><tspan
       class="TextPosition"
       x="11252"
       y="8648"
       id="tspan235"><tspan
         fill="#666666"
         stroke="none"
         id="tspan233">2d</tspan></tspan></tspan></text>
       </g>
      </g>
      <g
   class="com.sun.star.drawing.CustomShape"
   id="g263">
       <g
   id="id13">
        <rect
   class="BoundingBox"
   stroke="none"
   fill="none"
   x="12964"
   y="7964"
   width="1073"
   height="1073"
   id="rect244" />
        <path
   fill="none"
   stroke="#000000"
   stroke-width="71"
   stroke-linejoin="round"
   d="m 13500,9000 h -500 V 8000 h 1000 v 1000 z"
   id="path246" />
        <text
   class="TextShape"
   id="text260"><tspan
     class="TextParagraph"
     font-family="'Liberation Sans', sans-serif"
     font-size="423px"
     font-weight="700"
     id="tspan252"><tspan
       class="TextPosition"
       x="13252"
       y="8411"
       id="tspan250"><tspan
         fill="#666666"
         stroke="none"
         id="tspan248">2d</tspan></tspan></tspan><tspan
     class="TextParagraph"
     font-family="'Liberation Sans', sans-serif"
     font-size="423px"
     font-weight="700"
     id="tspan258"><tspan
       class="TextPosition"
       x="13258"
       y="8885"
       id="tspan256"><tspan
         fill="#666666"
         stroke="none"
         id="tspan254">+1</tspan></tspan></tspan></text>
       </g>
      </g>
      <g
   class="com.sun.star.drawing.CustomShape"
   id="g278">
       <g
   id="id14">
        <rect
   class="BoundingBox"
   stroke="none"
   fill="none"
   x="11964"
   y="6964"
   width="1073"
   height="1073"
   id="rect265" />
        <path
   fill="none"
   stroke="#000000"
   stroke-width="71"
   stroke-linejoin="round"
   d="m 12500,8000 h -500 V 7000 h 1000 v 1000 z"
   id="path267" />
        <text
   class="TextShape"
   id="text275"><tspan
     class="TextParagraph"
     font-family="'Liberation Sans', sans-serif"
     font-size="635px"
     font-weight="700"
     id="tspan273"><tspan
       class="TextPosition"
       x="12306"
       y="7721"
       id="tspan271"><tspan
         fill="#000000"
         stroke="none"
         id="tspan269">d</tspan></tspan></tspan></text>
       </g>
      </g>
      <g
   class="com.sun.star.drawing.CustomShape"
   id="g293">
       <g
   id="id15">
        <rect
   class="BoundingBox"
   stroke="none"
   fill="none"
   x="14964"
   y="7964"
   width="1073"
   height="1073"
   id="rect280" />
        <path
   fill="none"
   stroke="#000000"
   stroke-width="71"
   stroke-linejoin="round"
   d="m 15500,9000 h -500 V 8000 h 1000 v 1000 z"
   id="path282" />
        <text
   class="TextShape"
   id="text290"><tspan
     class="TextParagraph"
     font-family="'Liberation Sans', sans-serif"
     font-size="423px"
     font-weight="700"
     id="tspan288"><tspan
       class="TextPosition"
       x="15263"
       y="8648"
       id="tspan286"><tspan
         fill="#666666"
         stroke="none"
         id="tspan284">2e</tspan></tspan></tspan></text>
       </g>
      </g>
      <g
   class="com.sun.star.drawing.CustomShape"
   id="g314">
       <g
   id="id16">
        <rect
   class="BoundingBox"
   stroke="none"
   fill="none"
   x="16964"
   y="7964"
   width="1073"
   height="1073"
   id="rect295" />
        <path
   fill="none"
   stroke="#000000"
   stroke-width="71"
   stroke-linejoin="round"
   d="m 17500,9000 h -500 V 8000 h 1000 v 1000 z"
   id="path297" />
        <text
   class="TextShape"
   id="text311"><tspan
     class="TextParagraph"
     font-family="'Liberation Sans', sans-serif"
     font-size="423px"
     font-weight="700"
     id="tspan303"><tspan
       class="TextPosition"
       x="17263"
       y="8411"
       id="tspan301"><tspan
         fill="#666666"
         stroke="none"
         id="tspan299">2e</tspan></tspan></tspan><tspan
     class="TextParagraph"
     font-family="'Liberation Sans', sans-serif"
     font-size="423px"
     font-weight="700"
     id="tspan309"><tspan
       class="TextPosition"
       x="17258"
       y="8885"
       id="tspan307"><tspan
         fill="#666666"
         stroke="none"
         id="tspan305">+1</tspan></tspan></tspan></text>
       </g>
      </g>
      <g
   class="com.sun.star.drawing.CustomShape"
   id="g329">
       <g
   id="id17">
        <rect
   class="BoundingBox"
   stroke="none"
   fill="none"
   x="15964"
   y="6964"
   width="1073"
   height="1073"
   id="rect316" />
        <path
   fill="none"
   stroke="#000000"
   stroke-width="71"
   stroke-linejoin="round"
   d="m 16500,8000 h -500 V 7000 h 1000 v 1000 z"
   id="path318" />
        <text
   class="TextShape"
   id="text326"><tspan
     class="TextParagraph"
     font-family="'Liberation Sans', sans-serif"
     font-size="635px"
     font-weight="700"
     id="tspan324"><tspan
       class="TextPosition"
       x="16325"
       y="7721"
       id="tspan322"><tspan
         fill="#000000"
         stroke="none"
         id="tspan320">e</tspan></tspan></tspan></text>
       </g>
      </g>
      <g
   class="com.sun.star.drawing.CustomShape"
   id="g344">
       <g
   id="id18">
        <rect
   class="BoundingBox"
   stroke="none"
   fill="none"
   x="1964"
   y="11964"
   width="1073"
   height="1073"
   id="rect331" />
        <path
   fill="none"
   stroke="#000000"
   stroke-width="71"
   stroke-linejoin="round"
   d="m 2500,13000 h -500 v -1000 h 1000 v 1000 z"
   id="path333" />
        <text
   class="TextShape"
   id="text341"><tspan
     class="TextParagraph"
     font-family="'Liberation Sans', sans-serif"
     font-size="423px"
     font-weight="700"
     id="tspan339"><tspan
       class="TextPosition"
       x="2312"
       y="12648"
       id="tspan337"><tspan
         fill="#666666"
         stroke="none"
         id="tspan335">2f</tspan></tspan></tspan></text>
       </g>
      </g>
      <g
   class="com.sun.star.drawing.CustomShape"
   id="g365">
       <g
   id="id19">
        <rect
   class="BoundingBox"
   stroke="none"
   fill="none"
   x="3964"
   y="11964"
   width="1073"
   height="1073"
   id="rect346" />
        <path
   fill="none"
   stroke="#000000"
   stroke-width="71"
   stroke-linejoin="round"
   d="m 4500,13000 h -500 v -1000 h 1000 v 1000 z"
   id="path348" />
        <text
   class="TextShape"
   id="text362"><tspan
     class="TextParagraph"
     font-family="'Liberation Sans', sans-serif"
     font-size="423px"
     font-weight="700"
     id="tspan354"><tspan
       class="TextPosition"
       x="4311"
       y="12411"
       id="tspan352"><tspan
         fill="#666666"
         stroke="none"
         id="tspan350">2f</tspan></tspan></tspan><tspan
     class="TextParagraph"
     font-family="'Liberation Sans', sans-serif"
     font-size="423px"
     font-weight="700"
     id="tspan360"><tspan
       class="TextPosition"
       x="4258"
       y="12885"
       id="tspan358"><tspan
         fill="#666666"
         stroke="none"
         id="tspan356">+1</tspan></tspan></tspan></text>
       </g>
      </g>
      <g
   class="com.sun.star.drawing.CustomShape"
   id="g380">
       <g
   id="id20">
        <rect
   class="BoundingBox"
   stroke="none"
   fill="none"
   x="2964"
   y="10964"
   width="1073"
   height="1073"
   id="rect367" />
        <path
   fill="none"
   stroke="#000000"
   stroke-width="71"
   stroke-linejoin="round"
   d="m 3500,12000 h -500 v -1000 h 1000 v 1000 z"
   id="path369" />
        <text
   class="TextShape"
   id="text377"><tspan
     class="TextParagraph"
     font-family="'Liberation Sans', sans-serif"
     font-size="635px"
     font-weight="700"
     id="tspan375"><tspan
       class="TextPosition"
       x="3394"
       y="11721"
       id="tspan373"><tspan
         fill="#000000"
         stroke="none"
         id="tspan371">f</tspan></tspan></tspan></text>
       </g>
      </g>
      <g
   class="com.sun.star.drawing.ConnectorShape"
   id="g387">
       <g
   id="id21">
        <rect
   class="BoundingBox"
   stroke="none"
   fill="none"
   x="2361"
   y="8464"
   width="676"
   height="3073"
   id="rect382" />
        <path
   fill="none"
   stroke="#2a6099"
   stroke-width="71"
   stroke-linejoin="round"
   d="m 3000,8500 c -804,0 -804,3000 0,3000"
   id="path384" />
       </g>
      </g>
      <g
   class="com.sun.star.drawing.ConnectorShape"
   id="g394">
       <g
   id="id22">
        <rect
   class="BoundingBox"
   stroke="none"
   fill="none"
   x="3964"
   y="8464"
   width="676"
   height="3073"
   id="rect389" />
        <path
   fill="none"
   stroke="#2a6099"
   stroke-width="71"
   stroke-linejoin="round"
   d="m 4000,11500 c 804,0 804,-3000 0,-3000"
   id="path391" />
       </g>
      </g>
      <g
   class="com.sun.star.drawing.ConnectorShape"
   id="g401">
       <g
   id="id23">
        <rect
   class="BoundingBox"
   stroke="none"
   fill="none"
   x="4464"
   y="4464"
   width="4573"
   height="2573"
   id="rect396" />
        <path
   fill="none"
   stroke="#ff0000"
   stroke-width="71"
   stroke-linejoin="round"
   d="m 9000,4500 c -3000,0 -4500,833 -4500,2500"
   id="path398" />
       </g>
      </g>
      <g
   class="com.sun.star.drawing.ConnectorShape"
   id="g408">
       <g
   id="id24">
        <rect
   class="BoundingBox"
   stroke="none"
   fill="none"
   x="4964"
   y="7464"
   width="3073"
   height="73"
   id="rect403" />
        <path
   fill="none"
   stroke="#ff0000"
   stroke-width="71"
   stroke-linejoin="round"
   d="M 5000,7500 H 8000"
   id="path405" />
       </g>
      </g>
      <g
   class="com.sun.star.drawing.ConnectorShape"
   id="g415">
       <g
   id="id25">
        <rect
   class="BoundingBox"
   stroke="none"
   fill="none"
   x="8464"
   y="4964"
   width="1073"
   height="2073"
   id="rect410" />
        <path
   fill="none"
   stroke="#ff0000"
   stroke-width="71"
   stroke-linejoin="round"
   d="m 8500,7000 c 0,-1500 1000,-500 1000,-2000"
   id="path412" />
       </g>
      </g>
      <g
   class="com.sun.star.drawing.ConnectorShape"
   id="g422">
       <g
   id="id26">
        <rect
   class="BoundingBox"
   stroke="none"
   fill="none"
   x="11464"
   y="4964"
   width="1073"
   height="2073"
   id="rect417" />
        <path
   fill="none"
   stroke="#ffa6a6"
   stroke-width="71"
   stroke-linejoin="round"
   d="m 11500,5000 c 0,1500 1000,500 1000,2000"
   id="path419" />
       </g>
      </g>
      <g
   class="com.sun.star.drawing.ConnectorShape"
   id="g429">
       <g
   id="id27">
        <rect
   class="BoundingBox"
   stroke="none"
   fill="none"
   x="12964"
   y="7464"
   width="3073"
   height="73"
   id="rect424" />
        <path
   fill="none"
   stroke="#ffa6a6"
   stroke-width="71"
   stroke-linejoin="round"
   d="m 13000,7500 h 3000"
   id="path426" />
       </g>
      </g>
      <g
   class="com.sun.star.drawing.ConnectorShape"
   id="g436">
       <g
   id="id28">
        <rect
   class="BoundingBox"
   stroke="none"
   fill="none"
   x="11964"
   y="4464"
   width="4573"
   height="2573"
   id="rect431" />
        <path
   fill="none"
   stroke="#ffa6a6"
   stroke-width="71"
   stroke-linejoin="round"
   d="m 16500,7000 c 0,-1667 -1500,-2500 -4500,-2500"
   id="path433" />
       </g>
      </g>
     </g>
    </g>
   </g>
  </g>
 </g>
</svg>
